[{"usuarioID":1,"name":"Consuela","lastName":"Phillott","email":"cphillott0@mysql.com","password":"4nPcNggbAJa"},
{"usuarioID":2,"name":"Wilhelmina","lastName":"Maleck","email":"wmaleck1@artisteer.com","password":"zQtNeETph"},
{"usuarioID":3,"name":"Zak","lastName":"McKissack","email":"zmckissack2@mlb.com","password":"m1pidp6R"},
{"usuarioID":4,"name":"Wainwright","lastName":"Rushford","email":"wrushford3@who.int","password":"txUQTFTxk7Jb"},
{"usuarioID":5,"name":"Bryant","lastName":"Dessaur","email":"bdessaur4@sphinn.com","password":"3wZpoM1gJ"},
{"usuarioID":6,"name":"Jillane","lastName":"Royle","email":"jroyle5@delicious.com","password":"GHj9iD"},
{"usuarioID":7,"name":"Norina","lastName":"Robbel","email":"nrobbel6@blogs.com","password":"Swn81QtK"},
{"usuarioID":8,"name":"Toby","lastName":"Patillo","email":"tpatillo7@biblegateway.com","password":"SnHex1q"},
{"usuarioID":9,"name":"Elayne","lastName":"Kattenhorn","email":"ekattenhorn8@guardian.co.uk","password":"3BTcXGBTb"},
{"usuarioID":10,"name":"Gordan","lastName":"Ivashechkin","email":"givashechkin9@facebook.com","password":"ACw6s4c7j"},
{"usuarioID":11,"name":"Herby","lastName":"Bladder","email":"hbladdera@cdbaby.com","password":"pZ5pvu"},
{"usuarioID":12,"name":"Britni","lastName":"Forsaith","email":"bforsaithb@t.co","password":"r9K6nqw6NA"},
{"usuarioID":13,"name":"Eleanora","lastName":"Reston","email":"erestonc@cbslocal.com","password":"8N5ZmS5rNIB"},
{"usuarioID":14,"name":"Ninnette","lastName":"Pipworth","email":"npipworthd@themeforest.net","password":"48fZiaLcS"},
{"usuarioID":15,"name":"Lela","lastName":"Enric","email":"lenrice@mtv.com","password":"YXytr0N"},
{"usuarioID":16,"name":"Ariana","lastName":"Geekin","email":"ageekinf@umn.edu","password":"h4kupE1"},
{"usuarioID":17,"name":"Sigismond","lastName":"Plumstead","email":"splumsteadg@usatoday.com","password":"2u2ch3XMBUe"},
{"usuarioID":18,"name":"Mariana","lastName":"Thornally","email":"mthornallyh@umn.edu","password":"BJU90Mxq"},
{"usuarioID":19,"name":"Corbin","lastName":"Fawcus","email":"cfawcusi@ask.com","password":"Q82N72"},
{"usuarioID":20,"name":"Novelia","lastName":"Dinley","email":"ndinleyj@home.pl","password":"byYSTQCPMU"}]
